^C:\USERS\KAINOA\DOCUMENTS\VISUAL STUDIO 2010\PROJECTS\DYNASPECRATIO\DYNASPECRATIO\STDAFX.CPP
C:\USERS\KAINOA\DOCUMENTS\VISUAL STUDIO 2010\PROJECTS\DYNASPECRATIO\DYNASPECRATIO\DEBUG\DYNASPECRATIO.PCH
C:\USERS\KAINOA\DOCUMENTS\VISUAL STUDIO 2010\PROJECTS\DYNASPECRATIO\DYNASPECRATIO\DEBUG\STDAFX.OBJ
C:\USERS\KAINOA\DOCUMENTS\VISUAL STUDIO 2010\PROJECTS\DYNASPECRATIO\DYNASPECRATIO\DEBUG\VC100.PDB
^C:\USERS\KAINOA\DOCUMENTS\VISUAL STUDIO 2010\PROJECTS\DYNASPECRATIO\DYNASPECRATIO\DYNASPECRATIO.CPP|C:\USERS\KAINOA\DOCUMENTS\VISUAL STUDIO 2010\PROJECTS\DYNASPECRATIO\DYNASPECRATIO\DYNASPECRATIOUI.CPP|C:\USERS\KAINOA\DOCUMENTS\VISUAL STUDIO 2010\PROJECTS\DYNASPECRATIO\DYNASPECRATIO\MAIN.CPP|C:\USERS\KAINOA\DOCUMENTS\VISUAL STUDIO 2010\PROJECTS\DYNASPECRATIO\DYNASPECRATIO\SCENEMANAGER.CPP|C:\USERS\KAINOA\DOCUMENTS\VISUAL STUDIO 2010\PROJECTS\DYNASPECRATIO\DYNASPECRATIO\SCNMAIN.CPP|C:\USERS\KAINOA\DOCUMENTS\VISUAL STUDIO 2010\PROJECTS\DYNASPECRATIO\DYNASPECRATIO\SCNMAIN.H
C:\USERS\KAINOA\DOCUMENTS\VISUAL STUDIO 2010\PROJECTS\DYNASPECRATIO\DYNASPECRATIO\DEBUG\SCNMAIN.OBJ
C:\USERS\KAINOA\DOCUMENTS\VISUAL STUDIO 2010\PROJECTS\DYNASPECRATIO\DYNASPECRATIO\DEBUG\SCENEMANAGER.OBJ
C:\USERS\KAINOA\DOCUMENTS\VISUAL STUDIO 2010\PROJECTS\DYNASPECRATIO\DYNASPECRATIO\DEBUG\MAIN.OBJ
C:\USERS\KAINOA\DOCUMENTS\VISUAL STUDIO 2010\PROJECTS\DYNASPECRATIO\DYNASPECRATIO\DEBUG\DYNASPECRATIOUI.OBJ
C:\USERS\KAINOA\DOCUMENTS\VISUAL STUDIO 2010\PROJECTS\DYNASPECRATIO\DYNASPECRATIO\DEBUG\DYNASPECRATIO.OBJ
^C:\USERS\KAINOA\DOCUMENTS\VISUAL STUDIO 2010\PROJECTS\DYNASPECRATIO\DYNASPECRATIO\SCENEMANAGER.CPP
C:\USERS\KAINOA\DOCUMENTS\VISUAL STUDIO 2010\PROJECTS\DYNASPECRATIO\DYNASPECRATIO\DEBUG\VC100.PDB
^C:\USERS\KAINOA\DOCUMENTS\VISUAL STUDIO 2010\PROJECTS\DYNASPECRATIO\DYNASPECRATIO\DYNASPECRATIO.CPP|C:\USERS\KAINOA\DOCUMENTS\VISUAL STUDIO 2010\PROJECTS\DYNASPECRATIO\DYNASPECRATIO\DYNASPECRATIOUI.CPP|C:\USERS\KAINOA\DOCUMENTS\VISUAL STUDIO 2010\PROJECTS\DYNASPECRATIO\DYNASPECRATIO\MAIN.CPP|C:\USERS\KAINOA\DOCUMENTS\VISUAL STUDIO 2010\PROJECTS\DYNASPECRATIO\DYNASPECRATIO\SCNMAIN.H|C:\USERS\KAINOA\DOCUMENTS\VISUAL STUDIO 2010\PROJECTS\DYNASPECRATIO\DYNASPECRATIO\SETTINGS.CPP
C:\USERS\KAINOA\DOCUMENTS\VISUAL STUDIO 2010\PROJECTS\DYNASPECRATIO\DYNASPECRATIO\DEBUG\SETTINGS.OBJ
C:\USERS\KAINOA\DOCUMENTS\VISUAL STUDIO 2010\PROJECTS\DYNASPECRATIO\DYNASPECRATIO\DEBUG\SCNMAIN.OBJ
C:\USERS\KAINOA\DOCUMENTS\VISUAL STUDIO 2010\PROJECTS\DYNASPECRATIO\DYNASPECRATIO\DEBUG\MAIN.OBJ
C:\USERS\KAINOA\DOCUMENTS\VISUAL STUDIO 2010\PROJECTS\DYNASPECRATIO\DYNASPECRATIO\DEBUG\DYNASPECRATIOUI.OBJ
C:\USERS\KAINOA\DOCUMENTS\VISUAL STUDIO 2010\PROJECTS\DYNASPECRATIO\DYNASPECRATIO\DEBUG\DYNASPECRATIO.OBJ
^C:\USERS\KAINOA\DOCUMENTS\VISUAL STUDIO 2010\PROJECTS\DYNASPECRATIO\DYNASPECRATIO\SCNMAIN.H
C:\USERS\KAINOA\DOCUMENTS\VISUAL STUDIO 2010\PROJECTS\DYNASPECRATIO\DYNASPECRATIO\DEBUG\VC100.PDB
^C:\USERS\KAINOA\DOCUMENTS\VISUAL STUDIO 2010\PROJECTS\DYNASPECRATIO\DYNASPECRATIO\SETTINGS.CPP
C:\USERS\KAINOA\DOCUMENTS\VISUAL STUDIO 2010\PROJECTS\DYNASPECRATIO\DYNASPECRATIO\DEBUG\VC100.PDB
^C:\USERS\KAINOA\DOCUMENTS\VISUAL STUDIO 2010\PROJECTS\DYNASPECRATIO\DYNASPECRATIO\DYNASPECRATIO.CPP|C:\USERS\KAINOA\DOCUMENTS\VISUAL STUDIO 2010\PROJECTS\DYNASPECRATIO\DYNASPECRATIO\DYNASPECRATIOUI.CPP|C:\USERS\KAINOA\DOCUMENTS\VISUAL STUDIO 2010\PROJECTS\DYNASPECRATIO\DYNASPECRATIO\MAIN.CPP|C:\USERS\KAINOA\DOCUMENTS\VISUAL STUDIO 2010\PROJECTS\DYNASPECRATIO\DYNASPECRATIO\SCNMAIN.CPP
C:\USERS\KAINOA\DOCUMENTS\VISUAL STUDIO 2010\PROJECTS\DYNASPECRATIO\DYNASPECRATIO\DEBUG\MAIN.OBJ
C:\USERS\KAINOA\DOCUMENTS\VISUAL STUDIO 2010\PROJECTS\DYNASPECRATIO\DYNASPECRATIO\DEBUG\SCNMAIN.OBJ
C:\USERS\KAINOA\DOCUMENTS\VISUAL STUDIO 2010\PROJECTS\DYNASPECRATIO\DYNASPECRATIO\DEBUG\DYNASPECRATIOUI.OBJ
C:\USERS\KAINOA\DOCUMENTS\VISUAL STUDIO 2010\PROJECTS\DYNASPECRATIO\DYNASPECRATIO\DEBUG\DYNASPECRATIO.OBJ
^C:\USERS\KAINOA\DOCUMENTS\VISUAL STUDIO 2010\PROJECTS\DYNASPECRATIO\DYNASPECRATIO\DYNASPECRATIO.CPP
C:\USERS\KAINOA\DOCUMENTS\VISUAL STUDIO 2010\PROJECTS\DYNASPECRATIO\DYNASPECRATIO\DEBUG\VC100.PDB
^C:\USERS\KAINOA\DOCUMENTS\VISUAL STUDIO 2010\PROJECTS\DYNASPECRATIO\DYNASPECRATIO\DYNASPECRATIOUI.CPP
C:\USERS\KAINOA\DOCUMENTS\VISUAL STUDIO 2010\PROJECTS\DYNASPECRATIO\DYNASPECRATIO\DEBUG\VC100.PDB
^C:\USERS\KAINOA\DOCUMENTS\VISUAL STUDIO 2010\PROJECTS\DYNASPECRATIO\DYNASPECRATIO\SCNMAIN.CPP
C:\USERS\KAINOA\DOCUMENTS\VISUAL STUDIO 2010\PROJECTS\DYNASPECRATIO\DYNASPECRATIO\DEBUG\VC100.PDB
^C:\USERS\KAINOA\DOCUMENTS\VISUAL STUDIO 2010\PROJECTS\DYNASPECRATIO\DYNASPECRATIO\MAIN.CPP
C:\USERS\KAINOA\DOCUMENTS\VISUAL STUDIO 2010\PROJECTS\DYNASPECRATIO\DYNASPECRATIO\DEBUG\VC100.PDB
